<?xml version="1.0" encoding="UTF-8" standalone="no"?>
<!-- Created with Inkscape (http://www.inkscape.org/) -->

<svg
   xmlns:dc="http://purl.org/dc/elements/1.1/"
   xmlns:cc="http://creativecommons.org/ns#"
   xmlns:rdf="http://www.w3.org/1999/02/22-rdf-syntax-ns#"
   xmlns:svg="http://www.w3.org/2000/svg"
   xmlns="http://www.w3.org/2000/svg"
   xmlns:sodipodi="http://sodipodi.sourceforge.net/DTD/sodipodi-0.dtd"
   xmlns:inkscape="http://www.inkscape.org/namespaces/inkscape"
   width="210mm"
   height="297mm"
   viewBox="0 0 210 297"
   version="1.1"
   id="svg8"
   inkscape:version="0.92.5 (2060ec1f9f, 2020-04-08)"
   sodipodi:docname="templates.svg">
  <defs
     id="defs2" />
  <sodipodi:namedview
     id="base"
     pagecolor="#ffffff"
     bordercolor="#666666"
     borderopacity="1.0"
     inkscape:pageopacity="0.0"
     inkscape:pageshadow="2"
     inkscape:zoom="4.2796388"
     inkscape:cx="241.28063"
     inkscape:cy="829.96911"
     inkscape:document-units="mm"
     inkscape:current-layer="layer1"
     showgrid="true"
     inkscape:window-width="1600"
     inkscape:window-height="830"
     inkscape:window-x="0"
     inkscape:window-y="0"
     inkscape:window-maximized="1"
     showguides="false">
    <inkscape:grid
       type="xygrid"
       id="grid10" />
  </sodipodi:namedview>
  <metadata
     id="metadata5">
    <rdf:RDF>
      <cc:Work
         rdf:about="">
        <dc:format>image/svg+xml</dc:format>
        <dc:type
           rdf:resource="http://purl.org/dc/dcmitype/StillImage" />
        <dc:title />
      </cc:Work>
    </rdf:RDF>
  </metadata>
  <g
     inkscape:label="Layer 1"
     inkscape:groupmode="layer"
     id="layer1">
    <ellipse
       style="fill:#1a1a1a;stroke-width:0.42431608"
       id="path209-3"
       cx="54.864429"
       cy="82.069237"
       rx="2.1057947"
       ry="2.1374848" />
    <rect
       style="fill:#ff0000;stroke-width:0.26458332"
       id="rect12"
       width="1.3229166"
       height="19.84375"
       x="31.75"
       y="82.6875" />
    <rect
       style="fill:#ff0000;stroke-width:0.26458332"
       id="rect12-6"
       width="1.3229166"
       height="19.84375"
       x="83.450111"
       y="9.8440294"
       transform="rotate(49.411157)" />
    <rect
       style="fill:#ff0000;stroke-width:0.26458332"
       id="rect12-6-7"
       width="1.3229166"
       height="19.84375"
       x="101.20834"
       y="-51.593727"
       transform="rotate(89.999986)" />
    <rect
       style="fill:#ff0000;stroke-width:0.26458332"
       id="rect61"
       width="1.3229166"
       height="5.2916665"
       x="68.791664"
       y="69.458336" />
    <rect
       style="fill:#ff0000;stroke-width:0.26458332"
       id="rect65"
       width="1.3229166"
       height="5.2916665"
       x="76.729164"
       y="69.458336" />
    <rect
       style="fill:#ff0000;stroke-width:0.26458332"
       id="rect67"
       width="5.2916665"
       height="1.3229166"
       x="76.729164"
       y="69.458336" />
    <rect
       style="fill:#ff0000;stroke-width:0.26458332"
       id="rect69"
       width="1.3229166"
       height="5.2916665"
       x="60.854168"
       y="69.458336" />
    <rect
       style="fill:#ff0000;stroke-width:0.26458332"
       id="rect67-3"
       width="5.2916665"
       height="1.3229166"
       x="51.593754"
       y="73.427086" />
    <rect
       style="fill:#ff0000;stroke-width:0.26458332"
       id="rect69-1"
       width="1.3229166"
       height="5.2916665"
       x="97.717117"
       y="-8.1410513"
       transform="rotate(46.946533)" />
    <rect
       style="fill:#ff0000;stroke-width:0.26458332"
       id="rect69-1-2"
       width="1.3229166"
       height="5.2916665"
       x="96.813988"
       y="-1.882707"
       transform="rotate(46.946533)" />
    <rect
       style="fill:#ff0000;stroke-width:0.26458332"
       id="rect65-7"
       width="1.3229166"
       height="5.2916665"
       x="72.760422"
       y="69.458336" />
    <rect
       style="fill:#ff0000;stroke-width:0.26458332"
       id="rect69-1-2-0"
       width="1.3229166"
       height="5.2916665"
       x="-4.9490027"
       y="104.19764"
       transform="rotate(-46.94655)" />
    <rect
       style="fill:#ff0000;stroke-width:0.26458332"
       id="rect211"
       width="2.6458333"
       height="1.3229166"
       x="63.5"
       y="81.364586" />
    <rect
       style="fill:#ff0000;stroke-width:0.26458332"
       id="rect211-3"
       width="2.6458333"
       height="1.3229166"
       x="31.749998"
       y="89.302086" />
    <flowRoot
       xml:space="preserve"
       id="flowRoot260"
       style="font-style:normal;font-weight:normal;font-size:6.66666698px;line-height:1.25;font-family:sans-serif;letter-spacing:0px;word-spacing:0px;fill:#000000;fill-opacity:1;stroke:none"
       transform="matrix(0.26458333,0,0,0.26458333,0.15124431,-0.38881921)"><flowRegion
         id="flowRegion262"
         style="font-size:6.66666698px"><rect
           id="rect264"
           width="145"
           height="75"
           x="155"
           y="297.51968"
           style="font-size:6.66666698px" /></flowRegion><flowPara
         id="flowPara266">interchange</flowPara></flowRoot>    <flowRoot
       xml:space="preserve"
       id="flowRoot260-0"
       style="font-style:normal;font-weight:normal;font-size:6.66666698px;line-height:1.25;font-family:sans-serif;letter-spacing:0px;word-spacing:0px;fill:#000000;fill-opacity:1;stroke:none"
       transform="matrix(0.26458333,0,0,0.26458333,-5.4812263,10.158539)"><flowRegion
         id="flowRegion262-6"
         style="font-size:6.66666698px"><rect
           id="rect264-2"
           width="45.71645"
           height="11.605527"
           x="155"
           y="297.51968"
           style="font-size:6.66666698px" /></flowRegion><flowPara
         id="flowPara266-6">small station</flowPara></flowRoot>    <rect
       style="fill:#ff0000;stroke-width:0.26458332"
       id="rect69-1-2-0-1"
       width="1.3229166"
       height="5.2916665"
       x="5.5323067"
       y="109.60298"
       transform="rotate(-46.946551)" />
    <rect
       style="fill:#00ff00;stroke-width:0.26458332"
       id="rect67-3-8-7"
       width="5.2916665"
       height="1.3229166"
       x="34.395832"
       y="76.072914" />
    <rect
       style="fill:#00ff00;stroke-width:0.26458332"
       id="rect67-3-8-9"
       width="5.2916665"
       height="1.3229166"
       x="29.104166"
       y="76.072914" />
    <rect
       style="fill:#00ff00;stroke-width:0.22913592"
       id="rect67-3-8-5"
       width="3.9687514"
       height="1.3229166"
       x="37.041668"
       y="76.072914" />
    <circle
       style="fill:#ff0000;stroke-width:0.26458332"
       id="path209-6-5"
       cx="54.706089"
       cy="82.018265"
       r="1.3229166" />
    <ellipse
       style="fill:#ffffff;stroke-width:0.32674786"
       id="path209-67-6"
       cx="54.82972"
       cy="82.05304"
       rx="1.6321346"
       ry="1.6353459" />
    <ellipse
       style="fill:#1a1a1a;stroke-width:0.42431608"
       id="path209-3-2"
       cx="38.998055"
       cy="76.831909"
       rx="2.1057947"
       ry="2.1374848" />
    <circle
       style="fill:#ff0000;stroke-width:0.26458332"
       id="path209-6-5-9"
       cx="38.839714"
       cy="76.780937"
       r="1.3229166" />
    <rect
       style="fill:#00ff00;stroke-width:0.26458332"
       id="rect67-3-8-7-2"
       width="5.2916665"
       height="1.3229166"
       x="38.364582"
       y="76.072922" />
    <ellipse
       style="fill:#ffffff;stroke-width:0.32674786"
       id="path209-67-6-1"
       cx="38.963345"
       cy="76.815712"
       rx="1.6321347"
       ry="1.6353459" />
    <rect
       style="fill:#ff0000;stroke-width:0.13229178"
       id="rect69-0"
       width="1.3229166"
       height="1.322919"
       x="54.239582"
       y="69.458336" />
    <rect
       style="fill:#ff0000;stroke-width:0.13229178"
       id="rect69-0-9"
       width="1.3229179"
       height="1.322919"
       x="54.239582"
       y="65.489586" />
    <flowRoot
       xml:space="preserve"
       id="flowRoot260-3"
       style="font-style:normal;font-weight:normal;font-size:6.66666698px;line-height:1.25;font-family:sans-serif;letter-spacing:0px;word-spacing:0px;fill:#000000;fill-opacity:1;stroke:none"
       transform="matrix(0.26458333,0,0,0.26458333,27.662816,3.7533715)"><flowRegion
         id="flowRegion262-67"
         style="font-size:6.66666698px"><rect
           id="rect264-5"
           width="145"
           height="75"
           x="155"
           y="297.51968"
           style="font-size:6.66666698px" /></flowRegion><flowPara
         id="flowPara266-3">text example</flowPara></flowRoot>    <rect
       style="fill:#000000;stroke-width:0.14142574"
       id="rect95"
       width="1.3229166"
       height="2.6458337"
       x="60.854164"
       y="65.489586" />
    <rect
       style="fill:#ffffff;stroke-width:0.25227028"
       id="rect97"
       width="0.79374999"
       height="2.645833"
       x="61.118748"
       y="65.489586" />
    <rect
       style="fill:#ff0000;stroke-width:0.26458332"
       id="rect211-19"
       width="2.6458333"
       height="1.3229166"
       x="92.904068"
       y="49.109787"
       transform="rotate(26.564964)" />
    <rect
       style="fill:#ff0000;stroke-width:0.26458332"
       id="rect211-19-2"
       width="2.6458333"
       height="1.3229166"
       x="-20.590611"
       y="97.838463"
       transform="rotate(-50.547821)" />
  </g>
</svg>
